{
"data":[
{
"id":"1",
"url":"https:\/\/wallhaven.cc\/w\/9do681",
"short_url":"https:\/\/whvn.cc\/9do681",
"views":5,
"favorites":0,
"source":"",
"purity":"sfw",
"category":"anime",
"dimension_x":1079,
"dimension_y":2348,
"resolution":"1079x2348",
"ratio":"0.46",
"file_size":277744,
"file_type":"image\/jpeg",
"created_at":"2023-02-02 14:19:19",
"colors":[
"#fdadc7",
"#424153",
"#ea4c88",
"#993399",
"#000000"
],
"path":"https:\/\/w.wallhaven.cc\/full\/9d\/wallhaven-9do681.jpg",
"thumbs":{
"large":"https:\/\/th.wallhaven.cc\/lg\/9d\/9do681.jpg",
"original":"https:\/\/th.wallhaven.cc\/orig\/9d\/9do681.jpg",
"small":"https:\/\/th.wallhaven.cc\/small\/9d\/9do681.jpg"
}
},
{
"id":"2",
"url":"https:\/\/wallhaven.cc\/w\/kx8wkq",
"short_url":"https:\/\/whvn.cc\/kx8wkq",
"views":3,
"favorites":1,
"source":"",
"purity":"sfw",
"category":"general",
"dimension_x":2048,
"dimension_y":1365,
"resolution":"2048x1365",
"ratio":"1.5",
"file_size":2085616,
"file_type":"image\/jpeg",
"created_at":"2023-02-02 14:18:37",
"colors":[
"#000000",
"#424153",
"#ffffff",
"#cccccc",
"#999999"
],
"path":"https:\/\/w.wallhaven.cc\/full\/kx\/wallhaven-kx8wkq.jpg",
"thumbs":{
"large":"https:\/\/th.wallhaven.cc\/lg\/kx\/kx8wkq.jpg",
"original":"https:\/\/th.wallhaven.cc\/orig\/kx\/kx8wkq.jpg",
"small":"https:\/\/th.wallhaven.cc\/small\/kx\/kx8wkq.jpg"
}
},
{
"id":"3",
"url":"https:\/\/wallhaven.cc\/w\/1pq3xv",
"short_url":"https:\/\/whvn.cc\/1pq3xv",
"views":6,
"favorites":1,
"source":"",
"purity":"sfw",
"category":"general",
"dimension_x":2048,
"dimension_y":1365,
"resolution":"2048x1365",
"ratio":"1.5",
"file_size":1008915,
"file_type":"image\/jpeg",
"created_at":"2023-02-02 14:18:36",
"colors":[
"#0099cc",
"#336600",
"#000000",
"#66cccc",
"#0066cc"
],
"path":"https:\/\/w.wallhaven.cc\/full\/1p\/wallhaven-1pq3xv.jpg",
"thumbs":{
"large":"https:\/\/th.wallhaven.cc\/lg\/1p\/1pq3xv.jpg",
"original":"https:\/\/th.wallhaven.cc\/orig\/1p\/1pq3xv.jpg",
"small":"https:\/\/th.wallhaven.cc\/small\/1p\/1pq3xv.jpg"
}
},
{
"id":"4",
"url":"https:\/\/wallhaven.cc\/w\/m3ldwy",
"short_url":"https:\/\/whvn.cc\/m3ldwy",
"views":5,
"favorites":8,
"source":"",
"purity":"sfw",
"category":"anime",
"dimension_x":5000,
"dimension_y":2800,
"resolution":"5000x2800",
"ratio":"1.79",
"file_size":2748697,
"file_type":"image\/jpeg",
"created_at":"2023-02-02 13:37:21",
"colors":[
"#424153",
"#000000",
"#999999",
"#cccccc",
"#996633"
],
"path":"https:\/\/w.wallhaven.cc\/full\/m3\/wallhaven-m3ldwy.jpg",
"thumbs":{
"large":"https:\/\/th.wallhaven.cc\/lg\/m3\/m3ldwy.jpg",
"original":"https:\/\/th.wallhaven.cc\/orig\/m3\/m3ldwy.jpg",
"small":"https:\/\/th.wallhaven.cc\/small\/m3\/m3ldwy.jpg"
}
},
{
"id":"5",
"url":"https:\/\/wallhaven.cc\/w\/5gywk7",
"short_url":"https:\/\/whvn.cc\/5gywk7",
"views":26,
"favorites":6,
"source":"https:\/\/www.artstation.com\/artwork\/QrLl9x",
"purity":"sfw",
"category":"general",
"dimension_x":3840,
"dimension_y":1620,
"resolution":"3840x1620",
"ratio":"2.37",
"file_size":988335,
"file_type":"image\/jpeg",
"created_at":"2023-02-02 13:16:07",
"colors":[
"#424153",
"#000000",
"#999999",
"#663399",
"#996633"
],
"path":"https:\/\/w.wallhaven.cc\/full\/5g\/wallhaven-5gywk7.jpg",
"thumbs":{
"large":"https:\/\/th.wallhaven.cc\/lg\/5g\/5gywk7.jpg",
"original":"https:\/\/th.wallhaven.cc\/orig\/5g\/5gywk7.jpg",
"small":"https:\/\/th.wallhaven.cc\/small\/5g\/5gywk7.jpg"
}
},
{
"id":"6",
"url":"https:\/\/wallhaven.cc\/w\/3lq959",
"short_url":"https:\/\/whvn.cc\/3lq959",
"views":35,
"favorites":5,
"source":"https:\/\/www.artstation.com\/artwork\/XnkzD3",
"purity":"sfw",
"category":"general",
"dimension_x":3840,
"dimension_y":1955,
"resolution":"3840x1955",
"ratio":"1.96",
"file_size":6358104,
"file_type":"image\/png",
"created_at":"2023-02-02 13:12:42",
"colors":[
"#424153",
"#000000",
"#999999",
"#996633",
"#663300"
],
"path":"https:\/\/w.wallhaven.cc\/full\/3l\/wallhaven-3lq959.png",
"thumbs":{
"large":"https:\/\/th.wallhaven.cc\/lg\/3l\/3lq959.jpg",
"original":"https:\/\/th.wallhaven.cc\/orig\/3l\/3lq959.jpg",
"small":"https:\/\/th.wallhaven.cc\/small\/3l\/3lq959.jpg"
}
},
{
"id":"7",
"url":"https:\/\/wallhaven.cc\/w\/vqpgym",
"short_url":"https:\/\/whvn.cc\/vqpgym",
"views":26,
"favorites":7,
"source":"https:\/\/www.artstation.com\/artwork\/ZeYab0",
"purity":"sfw",
"category":"general",
"dimension_x":3840,
"dimension_y":2101,
"resolution":"3840x2101",
"ratio":"1.83",
"file_size":1181798,
"file_type":"image\/jpeg",
"created_at":"2023-02-02 13:08:58",
"colors":[
"#424153",
"#999999",
"#abbcda",
"#663399",
"#66cccc"
],
"path":"https:\/\/w.wallhaven.cc\/full\/vq\/wallhaven-vqpgym.jpg",
"thumbs":{
"large":"https:\/\/th.wallhaven.cc\/lg\/vq\/vqpgym.jpg",
"original":"https:\/\/th.wallhaven.cc\/orig\/vq\/vqpgym.jpg",
"small":"https:\/\/th.wallhaven.cc\/small\/vq\/vqpgym.jpg"
}
},
{
"id":"8",
"url":"https:\/\/wallhaven.cc\/w\/rrq2r1",
"short_url":"https:\/\/whvn.cc\/rrq2r1",
"views":33,
"favorites":3,
"source":"",
"purity":"sfw",
"category":"anime",
"dimension_x":1976,
"dimension_y":1397,
"resolution":"1976x1397",
"ratio":"1.41",
"file_size":432264,
"file_type":"image\/jpeg",
"created_at":"2023-02-02 13:08:56",
"colors":[
"#000000",
"#ea4c88",
"#424153",
"#993399",
"#999999"
],
"path":"https:\/\/w.wallhaven.cc\/full\/rr\/wallhaven-rrq2r1.jpg",
"thumbs":{
"large":"https:\/\/th.wallhaven.cc\/lg\/rr\/rrq2r1.jpg",
"original":"https:\/\/th.wallhaven.cc\/orig\/rr\/rrq2r1.jpg",
"small":"https:\/\/th.wallhaven.cc\/small\/rr\/rrq2r1.jpg"
}
},
{
"id":"9",
"url":"https:\/\/wallhaven.cc\/w\/kx8wx6",
"short_url":"https:\/\/whvn.cc\/kx8wx6",
"views":32,
"favorites":3,
"source":"",
"purity":"sfw",
"category":"anime",
"dimension_x":1777,
"dimension_y":1303,
"resolution":"1777x1303",
"ratio":"1.36",
"file_size":178794,
"file_type":"image\/jpeg",
"created_at":"2023-02-02 13:08:56",
"colors":[
"#424153",
"#663399",
"#000000",
"#999999",
"#abbcda"
],
"path":"https:\/\/w.wallhaven.cc\/full\/kx\/wallhaven-kx8wx6.jpg",
"thumbs":{
"large":"https:\/\/th.wallhaven.cc\/lg\/kx\/kx8wx6.jpg",
"original":"https:\/\/th.wallhaven.cc\/orig\/kx\/kx8wx6.jpg",
"small":"https:\/\/th.wallhaven.cc\/small\/kx\/kx8wx6.jpg"
}
},
{
"id":"10",
"url":"https:\/\/wallhaven.cc\/w\/9do6dw",
"short_url":"https:\/\/whvn.cc\/9do6dw",
"views":26,
"favorites":3,
"source":"",
"purity":"sfw",
"category":"anime",
"dimension_x":1976,
"dimension_y":1397,
"resolution":"1976x1397",
"ratio":"1.41",
"file_size":440319,
"file_type":"image\/jpeg",
"created_at":"2023-02-02 13:08:56",
"colors":[
"#424153",
"#e7d8b1",
"#000000",
"#999999",
"#993399"
],
"path":"https:\/\/w.wallhaven.cc\/full\/9d\/wallhaven-9do6dw.jpg",
"thumbs":{
"large":"https:\/\/th.wallhaven.cc\/lg\/9d\/9do6dw.jpg",
"original":"https:\/\/th.wallhaven.cc\/orig\/9d\/9do6dw.jpg",
"small":"https:\/\/th.wallhaven.cc\/small\/9d\/9do6dw.jpg"
}
},
{
"id":"11",
"url":"https:\/\/wallhaven.cc\/w\/m3ld1y",
"short_url":"https:\/\/whvn.cc\/m3ld1y",
"views":22,
"favorites":10,
"source":"https:\/\/www.artstation.com\/artwork\/3dePwB",
"purity":"sfw",
"category":"general",
"dimension_x":3840,
"dimension_y":2043,
"resolution":"3840x2043",
"ratio":"1.88",
"file_size":1141339,
"file_type":"image\/jpeg",
"created_at":"2023-02-02 13:06:50",
"colors":[
"#424153",
"#000000",
"#999999",
"#663399",
"#abbcda"
],
"path":"https:\/\/w.wallhaven.cc\/full\/m3\/wallhaven-m3ld1y.jpg",
"thumbs":{
"large":"https:\/\/th.wallhaven.cc\/lg\/m3\/m3ld1y.jpg",
"original":"https:\/\/th.wallhaven.cc\/orig\/m3\/m3ld1y.jpg",
"small":"https:\/\/th.wallhaven.cc\/small\/m3\/m3ld1y.jpg"
}
},
{
"id":"12",
"url":"https:\/\/wallhaven.cc\/w\/yxqmex",
"short_url":"https:\/\/whvn.cc\/yxqmex",
"views":198,
"favorites":2,
"source":"https:\/\/www.deviantart.com\/marci-lustra\/art\/RD-08h-947035651",
"purity":"sfw",
"category":"anime",
"dimension_x":3000,
"dimension_y":1800,
"resolution":"3000x1800",
"ratio":"1.67",
"file_size":3625320,
"file_type":"image\/jpeg",
"created_at":"2023-02-02 10:44:45",
"colors":[
"#66cccc",
"#abbcda",
"#0066cc",
"#ffffff",
"#cccccc"
],
"path":"https:\/\/w.wallhaven.cc\/full\/yx\/wallhaven-yxqmex.jpg",
"thumbs":{
"large":"https:\/\/th.wallhaven.cc\/lg\/yx\/yxqmex.jpg",
"original":"https:\/\/th.wallhaven.cc\/orig\/yx\/yxqmex.jpg",
"small":"https:\/\/th.wallhaven.cc\/small\/yx\/yxqmex.jpg"
}
},
{
"id":"13",
"url":"https:\/\/wallhaven.cc\/w\/5gyw57",
"short_url":"https:\/\/whvn.cc\/5gyw57",
"views":428,
"favorites":18,
"source":"",
"purity":"sfw",
"category":"anime",
"dimension_x":2896,
"dimension_y":4096,
"resolution":"2896x4096",
"ratio":"0.71",
"file_size":1001640,
"file_type":"image\/jpeg",
"created_at":"2023-02-02 10:42:10",
"colors":[
"#424153",
"#999999",
"#000000",
"#cccccc",
"#663399"
],
"path":"https:\/\/w.wallhaven.cc\/full\/5g\/wallhaven-5gyw57.jpg",
"thumbs":{
"large":"https:\/\/th.wallhaven.cc\/lg\/5g\/5gyw57.jpg",
"original":"https:\/\/th.wallhaven.cc\/orig\/5g\/5gyw57.jpg",
"small":"https:\/\/th.wallhaven.cc\/small\/5g\/5gyw57.jpg"
}
},
{
"id":"14",
"url":"https:\/\/wallhaven.cc\/w\/3lq9w9",
"short_url":"https:\/\/whvn.cc\/3lq9w9",
"views":240,
"favorites":20,
"source":"https:\/\/www.pixiv.net\/artworks\/95669241",
"purity":"sfw",
"category":"anime",
"dimension_x":3020,
"dimension_y":1700,
"resolution":"3020x1700",
"ratio":"1.78",
"file_size":4619227,
"file_type":"image\/jpeg",
"created_at":"2023-02-02 10:33:13",
"colors":[
"#000000",
"#424153",
"#663300",
"#996633",
"#ffcc33"
],
"path":"https:\/\/w.wallhaven.cc\/full\/3l\/wallhaven-3lq9w9.jpg",
"thumbs":{
"large":"https:\/\/th.wallhaven.cc\/lg\/3l\/3lq9w9.jpg",
"original":"https:\/\/th.wallhaven.cc\/orig\/3l\/3lq9w9.jpg",
"small":"https:\/\/th.wallhaven.cc\/small\/3l\/3lq9w9.jpg"
}
},
{
"id":"15",
"url":"https:\/\/wallhaven.cc\/w\/zypmyv",
"short_url":"https:\/\/whvn.cc\/zypmyv",
"views":506,
"favorites":25,
"source":"",
"purity":"sfw",
"category":"general",
"dimension_x":1920,
"dimension_y":3072,
"resolution":"1920x3072",
"ratio":"0.63",
"file_size":537998,
"file_type":"image\/jpeg",
"created_at":"2023-02-02 09:33:25",
"colors":[
"#000000",
"#424153",
"#996633",
"#999999",
"#663300"
],
"path":"https:\/\/w.wallhaven.cc\/full\/zy\/wallhaven-zypmyv.jpg",
"thumbs":{
"large":"https:\/\/th.wallhaven.cc\/lg\/zy\/zypmyv.jpg",
"original":"https:\/\/th.wallhaven.cc\/orig\/zy\/zypmyv.jpg",
"small":"https:\/\/th.wallhaven.cc\/small\/zy\/zypmyv.jpg"
}
},
{
"id":"16",
"url":"https:\/\/wallhaven.cc\/w\/85g35j",
"short_url":"https:\/\/whvn.cc\/85g35j",
"views":575,
"favorites":29,
"source":"",
"purity":"sfw",
"category":"general",
"dimension_x":1920,
"dimension_y":2322,
"resolution":"1920x2322",
"ratio":"0.83",
"file_size":496756,
"file_type":"image\/jpeg",
"created_at":"2023-02-02 09:32:07",
"colors":[
"#999999",
"#424153",
"#e7d8b1",
"#ffffff",
"#cccccc"
],
"path":"https:\/\/w.wallhaven.cc\/full\/85\/wallhaven-85g35j.jpg",
"thumbs":{
"large":"https:\/\/th.wallhaven.cc\/lg\/85\/85g35j.jpg",
"original":"https:\/\/th.wallhaven.cc\/orig\/85\/85g35j.jpg",
"small":"https:\/\/th.wallhaven.cc\/small\/85\/85g35j.jpg"
}
},
{
"id":"17",
"url":"https:\/\/wallhaven.cc\/w\/yxqmx7",
"short_url":"https:\/\/whvn.cc\/yxqmx7",
"views":225,
"favorites":6,
"source":"",
"purity":"sfw",
"category":"anime",
"dimension_x":1441,
"dimension_y":1409,
"resolution":"1441x1409",
"ratio":"1.02",
"file_size":453308,
"file_type":"image\/jpeg",
"created_at":"2023-02-02 09:01:38",
"colors":[
"#424153",
"#000000",
"#abbcda",
"#e7d8b1",
"#999999"
],
"path":"https:\/\/w.wallhaven.cc\/full\/yx\/wallhaven-yxqmx7.jpg",
"thumbs":{
"large":"https:\/\/th.wallhaven.cc\/lg\/yx\/yxqmx7.jpg",
"original":"https:\/\/th.wallhaven.cc\/orig\/yx\/yxqmx7.jpg",
"small":"https:\/\/th.wallhaven.cc\/small\/yx\/yxqmx7.jpg"
}
},
{
"id":"18",
"url":"https:\/\/wallhaven.cc\/w\/we5yy7",
"short_url":"https:\/\/whvn.cc\/we5yy7",
"views":393,
"favorites":10,
"source":"https:\/\/www.bilibili.com\/video\/BV1eP4y1f7g3\/?spm_id_from=333.999.0.0",
"purity":"sfw",
"category":"anime",
"dimension_x":4000,
"dimension_y":1812,
"resolution":"4000x1812",
"ratio":"2.21",
"file_size":3130951,
"file_type":"image\/jpeg",
"created_at":"2023-02-02 08:22:53",
"colors":[
"#424153",
"#996633",
"#999999",
"#e7d8b1",
"#663300"
],
"path":"https:\/\/w.wallhaven.cc\/full\/we\/wallhaven-we5yy7.jpg",
"thumbs":{
"large":"https:\/\/th.wallhaven.cc\/lg\/we\/we5yy7.jpg",
"original":"https:\/\/th.wallhaven.cc\/orig\/we\/we5yy7.jpg",
"small":"https:\/\/th.wallhaven.cc\/small\/we\/we5yy7.jpg"
}
},
{
"id":"19",
"url":"https:\/\/wallhaven.cc\/w\/1pq33w",
"short_url":"https:\/\/whvn.cc\/1pq33w",
"views":322,
"favorites":10,
"source":"",
"purity":"sfw",
"category":"anime",
"dimension_x":1800,
"dimension_y":2400,
"resolution":"1800x2400",
"ratio":"0.75",
"file_size":1995165,
"file_type":"image\/jpeg",
"created_at":"2023-02-02 08:12:08",
"colors":[
"#77cc33",
"#336600",
"#000000",
"#e7d8b1",
"#996633"
],
"path":"https:\/\/w.wallhaven.cc\/full\/1p\/wallhaven-1pq33w.jpg",
"thumbs":{
"large":"https:\/\/th.wallhaven.cc\/lg\/1p\/1pq33w.jpg",
"original":"https:\/\/th.wallhaven.cc\/orig\/1p\/1pq33w.jpg",
"small":"https:\/\/th.wallhaven.cc\/small\/1p\/1pq33w.jpg"
}
},
{
"id":"20",
"url":"https:\/\/wallhaven.cc\/w\/rrq221",
"short_url":"https:\/\/whvn.cc\/rrq221",
"views":115,
"favorites":7,
"source":"",
"purity":"sfw",
"category":"anime",
"dimension_x":1800,
"dimension_y":2400,
"resolution":"1800x2400",
"ratio":"0.75",
"file_size":2458622,
"file_type":"image\/jpeg",
"created_at":"2023-02-02 08:12:08",
"colors":[
"#77cc33",
"#336600",
"#000000",
"#e7d8b1",
"#663300"
],
"path":"https:\/\/w.wallhaven.cc\/full\/rr\/wallhaven-rrq221.jpg",
"thumbs":{
"large":"https:\/\/th.wallhaven.cc\/lg\/rr\/rrq221.jpg",
"original":"https:\/\/th.wallhaven.cc\/orig\/rr\/rrq221.jpg",
"small":"https:\/\/th.wallhaven.cc\/small\/rr\/rrq221.jpg"
}
},
{
"id":"21",
"url":"https:\/\/wallhaven.cc\/w\/kx8ww6",
"short_url":"https:\/\/whvn.cc\/kx8ww6",
"views":98,
"favorites":7,
"source":"",
"purity":"sfw",
"category":"anime",
"dimension_x":1800,
"dimension_y":2400,
"resolution":"1800x2400",
"ratio":"0.75",
"file_size":1993172,
"file_type":"image\/jpeg",
"created_at":"2023-02-02 08:12:08",
"colors":[
"#77cc33",
"#336600",
"#000000",
"#996633",
"#e7d8b1"
],
"path":"https:\/\/w.wallhaven.cc\/full\/kx\/wallhaven-kx8ww6.jpg",
"thumbs":{
"large":"https:\/\/th.wallhaven.cc\/lg\/kx\/kx8ww6.jpg",
"original":"https:\/\/th.wallhaven.cc\/orig\/kx\/kx8ww6.jpg",
"small":"https:\/\/th.wallhaven.cc\/small\/kx\/kx8ww6.jpg"
}
},
{
"id":"22",
"url":"https:\/\/wallhaven.cc\/w\/d68ggj",
"short_url":"https:\/\/whvn.cc\/d68ggj",
"views":92,
"favorites":5,
"source":"",
"purity":"sfw",
"category":"anime",
"dimension_x":1800,
"dimension_y":2400,
"resolution":"1800x2400",
"ratio":"0.75",
"file_size":2812481,
"file_type":"image\/jpeg",
"created_at":"2023-02-02 08:12:08",
"colors":[
"#77cc33",
"#424153",
"#336600",
"#ea4c88",
"#996633"
],
"path":"https:\/\/w.wallhaven.cc\/full\/d6\/wallhaven-d68ggj.jpg",
"thumbs":{
"large":"https:\/\/th.wallhaven.cc\/lg\/d6\/d68ggj.jpg",
"original":"https:\/\/th.wallhaven.cc\/orig\/d6\/d68ggj.jpg",
"small":"https:\/\/th.wallhaven.cc\/small\/d6\/d68ggj.jpg"
}
},
{
"id":"23",
"url":"https:\/\/wallhaven.cc\/w\/9do66w",
"short_url":"https:\/\/whvn.cc\/9do66w",
"views":172,
"favorites":7,
"source":"",
"purity":"sfw",
"category":"anime",
"dimension_x":1800,
"dimension_y":2400,
"resolution":"1800x2400",
"ratio":"0.75",
"file_size":2127422,
"file_type":"image\/jpeg",
"created_at":"2023-02-02 08:12:08",
"colors":[
"#77cc33",
"#336600",
"#e7d8b1",
"#996633",
"#000000"
],
"path":"https:\/\/w.wallhaven.cc\/full\/9d\/wallhaven-9do66w.jpg",
"thumbs":{
"large":"https:\/\/th.wallhaven.cc\/lg\/9d\/9do66w.jpg",
"original":"https:\/\/th.wallhaven.cc\/orig\/9d\/9do66w.jpg",
"small":"https:\/\/th.wallhaven.cc\/small\/9d\/9do66w.jpg"
}
},
{
"id":"24",
"url":"https:\/\/wallhaven.cc\/w\/qzr665",
"short_url":"https:\/\/whvn.cc\/qzr665",
"views":87,
"favorites":6,
"source":"",
"purity":"sfw",
"category":"anime",
"dimension_x":1800,
"dimension_y":2400,
"resolution":"1800x2400",
"ratio":"0.75",
"file_size":1918961,
"file_type":"image\/jpeg",
"created_at":"2023-02-02 08:12:08",
"colors":[
"#77cc33",
"#000000",
"#996633",
"#336600",
"#e7d8b1"
],
"path":"https:\/\/w.wallhaven.cc\/full\/qz\/wallhaven-qzr665.jpg",
"thumbs":{
"large":"https:\/\/th.wallhaven.cc\/lg\/qz\/qzr665.jpg",
"original":"https:\/\/th.wallhaven.cc\/orig\/qz\/qzr665.jpg",
"small":"https:\/\/th.wallhaven.cc\/small\/qz\/qzr665.jpg"
}
}
],
"meta":{
"current_page":1,
"last_page":18050,
"per_page":24,
"total":433180,
"query":"",
"seed":null
}
}